Getting Started with Stan
…
---

# more `tidybayes`

`spread_draws` and `gather_draws` are more commonly used 
  - No idea if these names will changes to reflect `tidyr 1.0`

```r
tidybayes::gather_draws(lifexp_model,`(Intercept)`,`log(gdpPercap)`)
```

```
## # A tibble: 8,000 × 5
## # Groups:   .variable [2]
##    .chain .iteration .draw .variable   .value
##     <int>      <int> <int> <chr>        <dbl>
##  1      1          1     1 (Intercept)   2.88
##  2      1          2     2 (Intercept)   2.86
##  3      1          3     3 (Intercept)   2.86
##  4      1          4     4 (Intercept)   2.87
##  5      1          5     5 (Intercept)   2.88
##  6      1          6     6 (Intercept)   2.88
##  7      1          7     7 (Intercept)   2.90
##  8      1          8     8 (Intercept)   2.82
##  9      1          9     9 (Intercept)   2.83
## 10      1         10    10 (Intercept)   2.87
## # … with 7,990 more rows
```
…
